{
    "id": "rule-element-generator",
    "title": "PF2e Rule Element Generator",
    "description": "An easy way to generate and edit rule elements for the Pathfinder 2e system.",
    "version": "3.0.2-beta3",
    "authors": [
      {
        "name": "Pamput"
      },
      {
        "name": "Bolt",
        "discord": "Bolt#4861",
        "flags": {}
      }
    ],
    "relationships": {
      "systems": [
        {
          "id": "pf2e",
          "type": "system",
          "compatibility": {}
        }
      ]
    },
    "esmodules": [
      "index.js"
    ],
    "languages": [
      {
        "lang": "en",
        "name": "English",
        "path": "lang/en.json",
        "flags": {}
      },
      {
        "lang": "fr",
        "name": "Francais",
        "path": "lang/fr.json",
        "flags": {}
      },
      {
        "lang": "pt-BR",
        "name": "Português (Brasil)",
        "path": "lang/pt-BR.json",
        "flags": {}
      },
      {
        "lang": "es",
        "name": "Español",
        "path": "lang/es.json",
        "flags": {}
      }
    ],
    "url": "https://gitlab.com/pamput/rule-element-generator",
    "manifest": "https://gitlab.com/pamput/rule-element-generator/-/raw/main/module.json",
    "download": "https://gitlab.com/pamput/rule-element-generator/-/archive/main/rule-element-generator-main.zip",
    "flags": {
      "allowBugReporter": true
    },
    "bugs": "https://gitlab.com/pamput/rule-element-generator/-/issues",
    "compatibility": {
      "minimum": "10",
      "verified": "10.291"
    }
  }